%YAML 1.1
%TAG !u! tag:unity3d.com,2011:
--- !u!74 &7400000
AnimationClip:
  m_ObjectHideFlags: 0
  m_CorrespondingSourceObject: {fileID: 0}
  m_PrefabInstance: {fileID: 0}
  m_PrefabAsset: {fileID: 0}
  m_Name: Rejected
  serializedVersion: 6
  m_Legacy: 0
  m_Compressed: 0
  m_UseHighQualityCurve: 1
  m_RotationCurves: []
  m_CompressedRotationCurves: []
  m_EulerCurves:
  - curve:
      serializedVersion: 2
      m_Curve:
      - serializedVersion: 3
        time: 0
        value: {x: 0, y: 0, z: -11.576}
        inSlope: {x: -41.912342, y: 2.7488196, z: 0}
        outSlope: {x: -41.912342, y: 2.7488196, z: 0}
        tangentMode: 0
        weightedMode: 0
        inWeight: {x: 0.33333334, y: 0.33333334, z: 0.33333334}
        outWeight: {x: 0.20065574, y: 0.6885246, z: 0.33333334}
      - serializedVersion: 3
        time: 0.16666667
        value: {x: -3.6660001, y: 11.863719, z: -9}
        inSlope: {x: 0, y: 95.418365, z: 0}
        outSlope: {x: 0, y: 95.418365, z: 0}
        tangentMode: 0
        weightedMode: 0
        inWeight: {x: 0.33333334, y: 0.33333334, z: 0.33333334}
        outWeight: {x: 0.33333334, y: 0.48688516, z: 0.33333334}
      - serializedVersion: 3
        time: 0.26666668
        value: {x: 1.218, y: 7.071, z: -9.725}
        inSlope: {x: 56.234035, y: -261.56946, z: 0}
        outSlope: {x: 56.234035, y: -261.56946, z: 0}
        tangentMode: 0
        weightedMode: 0
        inWeight: {x: 0.33333334, y: 0.36557388, z: 0.33333334}
        outWeight: {x: 0.20196714, y: 0.33333334, z: 0.33333334}
      - serializedVersion: 3
        time: 0.43333334
        value: {x: 4.428894, y: -14.13628, z: -9}
        inSlope: {x: 0, y: -19.301632, z: 0}
        outSlope: {x: 0, y: -19.301632, z: 0}
        tangentMode: 0
        weightedMode: 0
        inWeight: {x: 0.33333334, y: 0.36624137, z: 0.33333334}
        outWeight: {x: 0.33333334, y: 0.33333334, z: 0.33333334}
      - serializedVersion: 3
        time: 0.53333336
        value: {x: -1.2414514, y: -7.1336355, z: -9.725}
        inSlope: {x: -43.073338, y: 277.1811, z: 0}
        outSlope: {x: -43.073338, y: 277.1811, z: 0}
        tangentMode: 0
        weightedMode: 0
        inWeight: {x: 0.31693986, y: 0.12131185, z: 0.33333334}
        outWeight: {x: 0.29945347, y: 0.3256831, z: 0.33333334}
      - serializedVersion: 3
        time: 0.7
        value: {x: -3.6660001, y: 13, z: -9}
        inSlope: {x: 0, y: 32.346184, z: 0}
        outSlope: {x: 0, y: 32.346184, z: 0}
        tangentMode: 0
        weightedMode: 0
        inWeight: {x: 0.33333334, y: 0.37170276, z: 0.33333334}
        outWeight: {x: 0.33333334, y: 0.5524591, z: 0.33333334}
      - serializedVersion: 3
        time: 0.81666666
        value: {x: 1.218, y: 7.071, z: -9.725}
        inSlope: {x: 53.496914, y: -240.04112, z: 0}
        outSlope: {x: 53.496914, y: -240.04112, z: 0}
        tangentMode: 0
        weightedMode: 0
        inWeight: {x: 0.33333334, y: 0.39836082, z: 0.33333334}
        outWeight: {x: 0.25173032, y: 0.33333334, z: 0.33333334}
      - serializedVersion: 3
        time: 0.96666664
        value: {x: 4.428894, y: -13.757523, z: -9}
        inSlope: {x: 0, y: -57.15738, z: 0}
        outSlope: {x: 0, y: -57.15738, z: 0}
        tangentMode: 0
        weightedMode: 0
        inWeight: {x: 0.33333334, y: 0.44248587, z: 0.33333334}
        outWeight: {x: 0.33333334, y: 0.33333334, z: 0.33333334}
      - serializedVersion: 3
        time: 1
        value: {x: 3.9162915, y: -14.456146, z: -9.298147}
        inSlope: {x: 0, y: 0, z: 0}
        outSlope: {x: 0, y: 0, z: 0}
        tangentMode: 0
        weightedMode: 0
        inWeight: {x: 0.33333334, y: 0.33333334, z: 0.33333334}
        outWeight: {x: 0.33333334, y: 0.33333334, z: 0.33333334}
      m_PreInfinity: 2
      m_PostInfinity: 2
      m_RotationOrder: 4
    path: bouncerHead
  m_PositionCurves:
  - curve:
      serializedVersion: 2
      m_Curve:
      - serializedVersion: 3
        time: 0
        value: {x: -0.0177, y: 0.1065, z: -0.3891}
        inSlope: {x: 0, y: 0, z: -0.08312873}
        outSlope: {x: 0, y: 0, z: -0.08312873}
        tangentMode: 0
        weightedMode: 0
        inWeight: {x: 0.33333334, y: 0.33333334, z: 0.33333334}
        outWeight: {x: 0.33333334, y: 0.33333334, z: 0.46774194}
      - serializedVersion: 3
        time: 0.16666667
        value: {x: -0.0147, y: 0.1054, z: -0.3976}
        inSlope: {x: 0.016856171, y: -0.010802512, z: 0}
        outSlope: {x: 0.016856171, y: -0.010802512, z: 0}
        tangentMode: 0
        weightedMode: 0
        inWeight: {x: 0.33333334, y: 0.33333334, z: 0.33333334}
        outWeight: {x: 0.33333334, y: 0.33333334, z: 0.33333334}
      - serializedVersion: 3
        time: 0.26666668
        value: {x: -0.013205021, y: 0.10361933, z: -0.39079848}
        inSlope: {x: 0, y: 0, z: 0.15469682}
        outSlope: {x: 0, y: 0, z: 0.15469682}
        tangentMode: 0
        weightedMode: 0
        inWeight: {x: 0.33333334, y: 0.33333334, z: 0.33333334}
        outWeight: {x: 0.33333334, y: 0.33333334, z: 1}
      - serializedVersion: 3
        time: 0.43333334
        value: {x: -0.0151, y: 0.1052, z: -0.379}
        inSlope: {x: 0, y: 0, z: 0}
        outSlope: {x: 0, y: 0, z: 0}
        tangentMode: 0
        weightedMode: 0
        inWeight: {x: 0.33333334, y: 0.33333334, z: 0.33333334}
        outWeight: {x: 0.33333334, y: 0.33333334, z: 0.33333334}
      - serializedVersion: 3
        time: 0.53333336
        value: {x: -0.013205021, y: 0.10361933, z: -0.3855876}
        inSlope: {x: 0, y: 0, z: -0.19151479}
        outSlope: {x: 0, y: 0, z: -0.19151479}
        tangentMode: 0
        weightedMode: 0
        inWeight: {x: 0.33333334, y: 0.33333334, z: 0.47540995}
        outWeight: {x: 0.33333334, y: 0.33333334, z: 0.45943302}
      - serializedVersion: 3
        time: 0.7
        value: {x: -0.0147, y: 0.1054, z: -0.3976}
        inSlope: {x: 0, y: 0, z: 0}
        outSlope: {x: 0, y: 0, z: 0}
        tangentMode: 0
        weightedMode: 0
        inWeight: {x: 0.33333334, y: 0.33333334, z: 0.33333334}
        outWeight: {x: 0.33333334, y: 0.33333334, z: 0.33333334}
      - serializedVersion: 3
        time: 0.81666666
        value: {x: -0.013205021, y: 0.10361933, z: -0.39079848}
        inSlope: {x: 0, y: 0, z: 0.18236421}
        outSlope: {x: 0, y: 0, z: 0.18236421}
        tangentMode: 0
        weightedMode: 0
        inWeight: {x: 0.33333334, y: 0.33333334, z: 0.33333334}
        outWeight: {x: 0.33333334, y: 0.33333334, z: 1}
      - serializedVersion: 3
        time: 0.96666664
        value: {x: -0.0151, y: 0.1052, z: -0.379}
        inSlope: {x: -0.01066365, y: 0.0070179594, z: 0}
        outSlope: {x: -0.01066365, y: 0.0070179594, z: 0}
        tangentMode: 0
        weightedMode: 0
        inWeight: {x: 0.33333334, y: 0.33333334, z: 0.33333334}
        outWeight: {x: 0.33333334, y: 0.33333334, z: 0.33333334}
      - serializedVersion: 3
        time: 1
        value: {x: -0.015588751, y: 0.10552166, z: -0.3800578}
        inSlope: {x: 0, y: 0, z: 0}
        outSlope: {x: 0, y: 0, z: 0}
        tangentMode: 0
        weightedMode: 0
        inWeight: {x: 0.33333334, y: 0.33333334, z: 0.33333334}
        outWeight: {x: 0.33333334, y: 0.33333334, z: 0.33333334}
      m_PreInfinity: 2
      m_PostInfinity: 2
      m_RotationOrder: 4
    path: bouncerHead
  m_ScaleCurves: []
  m_FloatCurves: []
  m_PPtrCurves: []
  m_SampleRate: 60
  m_WrapMode: 0
  m_Bounds:
    m_Center: {x: 0, y: 0, z: 0}
    m_Extent: {x: 0, y: 0, z: 0}
  m_ClipBindingConstant:
    genericBindings:
    - serializedVersion: 2
      path: 2071332987
      attribute: 1
      script: {fileID: 0}
      typeID: 4
      customType: 0
      isPPtrCurve: 0
    - serializedVersion: 2
      path: 2071332987
      attribute: 4
      script: {fileID: 0}
      typeID: 4
      customType: 4
      isPPtrCurve: 0
    pptrCurveMapping: []
  m_AnimationClipSettings:
    serializedVersion: 2
    m_AdditiveReferencePoseClip: {fileID: 0}
    m_AdditiveReferencePoseTime: 0
    m_StartTime: 0
    m_StopTime: 1
    m_OrientationOffsetY: 0
    m_Level: 0
    m_CycleOffset: 0
    m_HasAdditiveReferencePose: 0
    m_LoopTime: 0
    m_LoopBlend: 0
    m_LoopBlendOrientation: 0
    m_LoopBlendPositionY: 0
    m_LoopBlendPositionXZ: 0
    m_KeepOriginalOrientation: 0
    m_KeepOriginalPositionY: 1
    m_KeepOriginalPositionXZ: 0
    m_HeightFromFeet: 0
    m_Mirror: 0
  m_EditorCurves:
  - curve:
      serializedVersion: 2
      m_Curve:
      - serializedVersion: 3
        time: 0
        value: -0.0177
        inSlope: 0
        outSlope: 0
        tangentMode: 136
        weightedMode: 0
        inWeight: 0.33333334
        outWeight: 0.33333334
      - serializedVersion: 3
        time: 0.16666667
        value: -0.0147
        inSlope: 0.016856171
        outSlope: 0.016856171
        tangentMode: 136
        weightedMode: 0
        inWeight: 0.33333334
        outWeight: 0.33333334
      - serializedVersion: 3
        time: 0.26666668
        value: -0.013205021
        inSlope: 0
        outSlope: 0
        tangentMode: 136
        weightedMode: 0
        inWeight: 0.33333334
        outWeight: 0.33333334
      - serializedVersion: 3
        time: 0.43333334
        value: -0.0151
        inSlope: 0
        outSlope: 0
        tangentMode: 136
        weightedMode: 0
        inWeight: 0.33333334
        outWeight: 0.33333334
      - serializedVersion: 3
        time: 0.53333336
        value: -0.013205021
        inSlope: 0
        outSlope: 0
        tangentMode: 136
        weightedMode: 0
        inWeight: 0.33333334
        outWeight: 0.33333334
      - serializedVersion: 3
        time: 0.7
        value: -0.0147
        inSlope: 0
        outSlope: 0
        tangentMode: 136
        weightedMode: 0
        inWeight: 0.33333334
        outWeight: 0.33333334
      - serializedVersion: 3
        time: 0.81666666
        value: -0.013205021
        inSlope: 0
        outSlope: 0
        tangentMode: 136
        weightedMode: 0
        inWeight: 0.33333334
        outWeight: 0.33333334
      - serializedVersion: 3
        time: 0.96666664
        value: -0.0151
        inSlope: -0.01066365
        outSlope: -0.01066365
        tangentMode: 136
        weightedMode: 0
        inWeight: 0.33333334
        outWeight: 0.33333334
      - serializedVersion: 3
        time: 1
        value: -0.015588751
        inSlope: 0
        outSlope: 0
        tangentMode: 136
        weightedMode: 0
        inWeight: 0.33333334
        outWeight: 0.33333334
      m_PreInfinity: 2
      m_PostInfinity: 2
      m_RotationOrder: 4
    attribute: m_LocalPosition.x
    path: bouncerHead
    classID: 4
    script: {fileID: 0}
  - curve:
      serializedVersion: 2
      m_Curve:
      - serializedVersion: 3
        time: 0
        value: 0.1065
        inSlope: 0
        outSlope: 0
        tangentMode: 136
        weightedMode: 0
        inWeight: 0.33333334
        outWeight: 0.33333334
      - serializedVersion: 3
        time: 0.16666667
        value: 0.1054
        inSlope: -0.010802512
        outSlope: -0.010802512
        tangentMode: 136
        weightedMode: 0
        inWeight: 0.33333334
        outWeight: 0.33333334
      - serializedVersion: 3
        time: 0.26666668
        value: 0.10361933
        inSlope: 0
        outSlope: 0
        tangentMode: 136
        weightedMode: 0
        inWeight: 0.33333334
        outWeight: 0.33333334
      - serializedVersion: 3
        time: 0.43333334
        value: 0.1052
        inSlope: 0
        outSlope: 0
        tangentMode: 136
        weightedMode: 0
        inWeight: 0.33333334
        outWeight: 0.33333334
      - serializedVersion: 3
        time: 0.53333336
        value: 0.10361933
        inSlope: 0
        outSlope: 0
        tangentMode: 136
        weightedMode: 0
        inWeight: 0.33333334
        outWeight: 0.33333334
      - serializedVersion: 3
        time: 0.7
        value: 0.1054
        inSlope: 0
        outSlope: 0
        tangentMode: 136
        weightedMode: 0
        inWeight: 0.33333334
        outWeight: 0.33333334
      - serializedVersion: 3
        time: 0.81666666
        value: 0.10361933
        inSlope: 0
        outSlope: 0
        tangentMode: 136
        weightedMode: 0
        inWeight: 0.33333334
        outWeight: 0.33333334
      - serializedVersion: 3
        time: 0.96666664
        value: 0.1052
        inSlope: 0.0070179594
        outSlope: 0.0070179594
        tangentMode: 136
        weightedMode: 0
        inWeight: 0.33333334
        outWeight: 0.33333334
      - serializedVersion: 3
        time: 1
        value: 0.10552166
        inSlope: 0
        outSlope: 0
        tangentMode: 136
        weightedMode: 0
        inWeight: 0.33333334
        outWeight: 0.33333334
      m_PreInfinity: 2
      m_PostInfinity: 2
      m_RotationOrder: 4
    attribute: m_LocalPosition.y
    path: bouncerHead
    classID: 4
    script: {fileID: 0}
  - curve:
      serializedVersion: 2
      m_Curve:
      - serializedVersion: 3
        time: 0
        value: -0.3891
        inSlope: -0.08312873
        outSlope: -0.08312873
        tangentMode: 0
        weightedMode: 0
        inWeight: 0.33333334
        outWeight: 0.46774194
      - serializedVersion: 3
        time: 0.16666667
        value: -0.3976
        inSlope: 0
        outSlope: 0
        tangentMode: 136
        weightedMode: 0
        inWeight: 0.33333334
        outWeight: 0.33333334
      - serializedVersion: 3
        time: 0.26666668
        value: -0.39079848
        inSlope: 0.15469682
        outSlope: 0.15469682
        tangentMode: 0
        weightedMode: 0
        inWeight: 0.33333334
        outWeight: 1
      - serializedVersion: 3
        time: 0.43333334
        value: -0.379
        inSlope: 0
        outSlope: 0
        tangentMode: 136
        weightedMode: 0
        inWeight: 0.33333334
        outWeight: 0.33333334
      - serializedVersion: 3
        time: 0.53333336
        value: -0.3855876
        inSlope: -0.19151479
        outSlope: -0.19151479
        tangentMode: 0
        weightedMode: 0
        inWeight: 0.47540995
        outWeight: 0.45943302
      - serializedVersion: 3
        time: 0.7
        value: -0.3976
        inSlope: 0
        outSlope: 0
        tangentMode: 136
        weightedMode: 0
        inWeight: 0.33333334
        outWeight: 0.33333334
      - serializedVersion: 3
        time: 0.81666666
        value: -0.39079848
        inSlope: 0.18236421
        outSlope: 0.18236421
        tangentMode: 0
        weightedMode: 0
        inWeight: 0.33333334
        outWeight: 1
      - serializedVersion: 3
        time: 0.96666664
        value: -0.379
        inSlope: 0
        outSlope: 0
        tangentMode: 136
        weightedMode: 0
        inWeight: 0.33333334
        outWeight: 0.33333334
      - serializedVersion: 3
        time: 1
        value: -0.3800578
        inSlope: 0
        outSlope: 0
        tangentMode: 136
        weightedMode: 0
        inWeight: 0.33333334
        outWeight: 0.33333334
      m_PreInfinity: 2
      m_PostInfinity: 2
      m_RotationOrder: 4
    attribute: m_LocalPosition.z
    path: bouncerHead
    classID: 4
    script: {fileID: 0}
  - curve:
      serializedVersion: 2
      m_Curve:
      - serializedVersion: 3
        time: 0
        value: 0
        inSlope: -41.912342
        outSlope: -41.912342
        tangentMode: 0
        weightedMode: 0
        inWeight: 0.33333334
        outWeight: 0.20065574
      - serializedVersion: 3
        time: 0.16666667
        value: -3.6660001
        inSlope: 0
        outSlope: 0
        tangentMode: 136
        weightedMode: 0
        inWeight: 0.33333334
        outWeight: 0.33333334
      - serializedVersion: 3
        time: 0.26666668
        value: 1.218
        inSlope: 56.234035
        outSlope: 56.234035
        tangentMode: 0
        weightedMode: 0
        inWeight: 0.33333334
        outWeight: 0.20196714
      - serializedVersion: 3
        time: 0.43333334
        value: 4.428894
        inSlope: 0
        outSlope: 0
        tangentMode: 136
        weightedMode: 0
        inWeight: 0.33333334
        outWeight: 0.33333334
      - serializedVersion: 3
        time: 0.53333336
        value: -1.2414514
        inSlope: -43.073338
        outSlope: -43.073338
        tangentMode: 0
        weightedMode: 0
        inWeight: 0.31693986
        outWeight: 0.29945347
      - serializedVersion: 3
        time: 0.7
        value: -3.6660001
        inSlope: 0
        outSlope: 0
        tangentMode: 136
        weightedMode: 0
        inWeight: 0.33333334
        outWeight: 0.33333334
      - serializedVersion: 3
        time: 0.81666666
        value: 1.218
        inSlope: 53.496914
        outSlope: 53.496914
        tangentMode: 0
        weightedMode: 0
        inWeight: 0.33333334
        outWeight: 0.25173032
      - serializedVersion: 3
        time: 0.96666664
        value: 4.428894
        inSlope: 0
        outSlope: 0
        tangentMode: 136
        weightedMode: 0
        inWeight: 0.33333334
        outWeight: 0.33333334
      - serializedVersion: 3
        time: 1
        value: 3.9162915
        inSlope: 0
        outSlope: 0
        tangentMode: 136
        weightedMode: 0
        inWeight: 0.33333334
        outWeight: 0.33333334
      m_PreInfinity: 2
      m_PostInfinity: 2
      m_RotationOrder: 4
    attribute: localEulerAnglesRaw.x
    path: bouncerHead
    classID: 4
    script: {fileID: 0}
  - curve:
      serializedVersion: 2
      m_Curve:
      - serializedVersion: 3
        time: 0
        value: 0
        inSlope: 2.7488196
        outSlope: 2.7488196
        tangentMode: 0
        weightedMode: 0
        inWeight: 0.33333334
        outWeight: 0.6885246
      - serializedVersion: 3
        time: 0.16666667
        value: 11.863719
        inSlope: 95.418365
        outSlope: 95.418365
        tangentMode: 0
        weightedMode: 0
        inWeight: 0.33333334
        outWeight: 0.48688516
      - serializedVersion: 3
        time: 0.26666668
        value: 7.071
        inSlope: -261.56946
        outSlope: -261.56946
        tangentMode: 0
        weightedMode: 0
        inWeight: 0.36557388
        outWeight: 0.33333334
      - serializedVersion: 3
        time: 0.43333334
        value: -14.13628
        inSlope: -19.301632
        outSlope: -19.301632
        tangentMode: 0
        weightedMode: 0
        inWeight: 0.36624137
        outWeight: 0.33333334
      - serializedVersion: 3
        time: 0.53333336
        value: -7.1336355
        inSlope: 277.1811
        outSlope: 277.1811
        tangentMode: 0
        weightedMode: 0
        inWeight: 0.12131185
        outWeight: 0.3256831
      - serializedVersion: 3
        time: 0.7
        value: 13
        inSlope: 32.346184
        outSlope: 32.346184
        tangentMode: 0
        weightedMode: 0
        inWeight: 0.37170276
        outWeight: 0.5524591
      - serializedVersion: 3
        time: 0.81666666
        value: 7.071
        inSlope: -240.04112
        outSlope: -240.04112
        tangentMode: 0
        weightedMode: 0
        inWeight: 0.39836082
        outWeight: 0.33333334
      - serializedVersion: 3
        time: 0.96666664
        value: -13.757523
        inSlope: -57.15738
        outSlope: -57.15738
        tangentMode: 0
        weightedMode: 0
        inWeight: 0.44248587
        outWeight: 0.33333334
      - serializedVersion: 3
        time: 1
        value: -14.456146
        inSlope: 0
        outSlope: 0
        tangentMode: 0
        weightedMode: 0
        inWeight: 0.33333334
        outWeight: 0.33333334
      m_PreInfinity: 2
      m_PostInfinity: 2
      m_RotationOrder: 4
    attribute: localEulerAnglesRaw.y
    path: bouncerHead
    classID: 4
    script: {fileID: 0}
  - curve:
      serializedVersion: 2
      m_Curve:
      - serializedVersion: 3
        time: 0
        value: -11.576
        inSlope: 0
        outSlope: 0
        tangentMode: 136
        weightedMode: 0
        inWeight: 0.33333334
        outWeight: 0.33333334
      - serializedVersion: 3
        time: 0.16666667
        value: -9
        inSlope: 0
        outSlope: 0
        tangentMode: 136
        weightedMode: 0
        inWeight: 0.33333334
        outWeight: 0.33333334
      - serializedVersion: 3
        time: 0.26666668
        value: -9.725
        inSlope: 0
        outSlope: 0
        tangentMode: 136
        weightedMode: 0
        inWeight: 0.33333334
        outWeight: 0.33333334
      - serializedVersion: 3
        time: 0.43333334
        value: -9
        inSlope: 0
        outSlope: 0
        tangentMode: 136
        weightedMode: 0
        inWeight: 0.33333334
        outWeight: 0.33333334
      - serializedVersion: 3
        time: 0.53333336
        value: -9.725
        inSlope: 0
        outSlope: 0
        tangentMode: 136
        weightedMode: 0
        inWeight: 0.33333334
        outWeight: 0.33333334
      - serializedVersion: 3
        time: 0.7
        value: -9
        inSlope: 0
        outSlope: 0
        tangentMode: 136
        weightedMode: 0
        inWeight: 0.33333334
        outWeight: 0.33333334
      - serializedVersion: 3
        time: 0.81666666
        value: -9.725
        inSlope: 0
        outSlope: 0
        tangentMode: 136
        weightedMode: 0
        inWeight: 0.33333334
        outWeight: 0.33333334
      - serializedVersion: 3
        time: 0.96666664
        value: -9
        inSlope: 0
        outSlope: 0
        tangentMode: 136
        weightedMode: 0
        inWeight: 0.33333334
        outWeight: 0.33333334
      - serializedVersion: 3
        time: 1
        value: -9.298147
        inSlope: 0
        outSlope: 0
        tangentMode: 136
        weightedMode: 0
        inWeight: 0.33333334
        outWeight: 0.33333334
      m_PreInfinity: 2
      m_PostInfinity: 2
      m_RotationOrder: 4
    attribute: localEulerAnglesRaw.z
    path: bouncerHead
    classID: 4
    script: {fileID: 0}
  m_EulerEditorCurves:
  - curve:
      serializedVersion: 2
      m_Curve: []
      m_PreInfinity: 2
      m_PostInfinity: 2
      m_RotationOrder: 4
    attribute: m_LocalEulerAngles.x
    path: bouncerHead
    classID: 4
    script: {fileID: 0}
  - curve:
      serializedVersion: 2
      m_Curve: []
      m_PreInfinity: 2
      m_PostInfinity: 2
      m_RotationOrder: 4
    attribute: m_LocalEulerAngles.y
    path: bouncerHead
    classID: 4
    script: {fileID: 0}
  - curve:
      serializedVersion: 2
      m_Curve: []
      m_PreInfinity: 2
      m_PostInfinity: 2
      m_RotationOrder: 4
    attribute: m_LocalEulerAngles.z
    path: bouncerHead
    classID: 4
    script: {fileID: 0}
  m_HasGenericRootTransform: 0
  m_HasMotionFloatCurves: 0
  m_Events: []
